{
    "api_key_missing": "La clé d'API est manquante.",
    "quote_deleted": "Citation #{0} supprimée.",
    "redacted_too_long": "Révisé car trop long.",
    "trigger": "Déclencheur",
    "response": "Réponse",
    "fw_cleared": "Suppression de tous les mots filtrés et des réglages de mots filtrés du salon.",
    "aar_disabled": "Les membres qui rejoignent le serveur ne recevront aucun rôle automatiquement.",
    "bandm": "Vous avez été banni du serveur {0}.\nRaison : {1}",
    "banned_user": "Membre banni",
    "byedel_off": "La suppression automatique des messages de départ a été désactivée.",
    "byedel_on": "Les messages de départ seront supprimés après {0} secondes.",
    "byemsg_cur": "Message d'au revoir actuel : {0}",
    "byemsg_enable": "Activez les messages de départ en tapant {0}",
    "byemsg_new": "Nouveau message de départ réglé.",
    "bye_off": "Annonces de départ désactivées.",
    "bye_on": "Annonces de départ désactivées dans ce salon.",
    "cr": "Le rôle {0} a été créé avec succès",
    "dr": "Le rôle {0} a été supprimé.",
    "createtextchan": "Salon textuel {0} créé.",
    "createvoich": "Salon vocal {0} créé.",
    "deafen": "Mise en sourdine effectuée.",
    "delmsg_off": "Je ne supprimerai plus automatiquement les messages qui auront exécuté avec succès une commande sur ce serveur.",
    "delmsg_on": "Je supprimerai automatiquement les messages qui auront exécuté avec succès une commande sur ce serveur.",
    "delmsg_channel_off": "Je ne supprimerai jamais automatiquement les messages qui auront exécuté avec succès une commande sur ce salon.",
    "delmsg_channel_on": "Je supprimerai toujours automatiquement les messages qui auront exécuté avec succès une commande sur ce salon.",
    "delmsg_channel_inherit": "Je supprimerai automatiquement les messages qui auront exécuté avec succès une commande sur ce salon uniquement si l'option est activée sur le serveur.",
    "deltextchan": "Salon textuel {0} supprimé.",
    "delvoich": "Salon vocal {0} supprimé.",
    "fwall_start": "Je transmettrai les MPs à tous les propriétaires.",
    "fwall_stop": "Je transmettrai les MPs uniquement au premier propriétaire.",
    "fwdm_start": "Je transmettrai les MPs dès maintenant.",
    "fwdm_stop": "J’arrête de transmettre les MPs dès maintenant.",
    "greetdel_off": "La suppression automatique des messages de bienvenue a été désactivée.",
    "greetdel_on": "Les messages de bienvenue seront supprimés après {0} secondes.",
    "greetdmmsg_cur": "MP de bienvenue actuel : {0}",
    "greetdmmsg_enable": "Activez les MP de bienvenue en tapant {0}",
    "greetdmmsg_new": "Nouveau MP de bienvenue réglé.",
    "greetdm_off": "Annonces de bienvenue en MP désactivées.",
    "greetdm_on": "Annonces de bienvenue en MP activées.",
    "greetmsg_cur": "Message de bienvenue actuel : {0}",
    "greetmsg_enable": "Activez les messages de bienvenue en tapant {0}",
    "greetmsg_new": "Nouveau message d'accueil défini.",
    "greet_off": "Annonces de bienvenue désactivées.",
    "greet_on": "Annonces de bienvenue activées dans ce salon.",
    "hierarchy": "Vous ne pouvez pas utiliser cette commande sur des membres ayant un rôle supérieur ou égal au vôtre dans la hiérarchie.",
    "invalid_format": "Format d'entrée invalide.",
    "kickdm": "Vous avez été expulsé du serveur {0}.\nRaison : {1}",
    "kicked_user": "Membre expulsé",
    "lang_list": "Liste des langues",
    "lang_set_bot": "Les paramètres régionaux par défaut du bot sont désormais {0} - {1}",
    "lang_set_bot_show": "La langage du bot a été réglé sur {0} - {1}",
    "lang_set": "La localisation du serveur a été réglée sur {0} - {1}",
    "message_sent": "Message envoyé.",
    "mute_error": "Je n'ai probablement pas les permissions nécessaires pour ça.",
    "mute_role_set": "Nouveau rôle muet défini.",
    "prot_active": "Protections actives",
    "prot_disable": "{0} a été **désactivé** sur ce serveur",
    "prot_enable": "{0} Activé",
    "prot_none": "Aucune protection d'activée.",
    "raid_cnt": "Le seuil d'utilisateurs doit être entre {0} et {1}",
    "raid_stats": "Si {0} ou plus d'utilisateurs rejoignent dans {1} secondes, je les {2}.",
    "raid_time": "Le temps doit être entre {0} et {1} secondes.",
    "rar": "Suppression de tout les rôles de l'utilisateur {0} avec succès",
    "rc": "La couleur de {0} a été changée",
    "renrole": "Rôle renommé.",
    "reprm": "Suppression du message de lecture: {0}",
    "role_added": "Le rôle {0] a été ajouté à la liste du groupe {1}.",
    "role_in_list": "Le rôle {0} est déjà dans la liste.",
    "self_assign_already": "Vous avez déjà le rôle {0}",
    "self_assign_excl": "Les rôles auto-attribués sont désormais exclusifs !",
    "self_assign_list": "Il y a {0} rôles auto-attribués",
    "self_assign_not": "Ce rôle n'est pas auto-attribuable.",
    "self_assign_not_have": "Vous n'avez pas le rôle {0}.",
    "self_assign_no_excl": "Les rôles auto-attribués ne sont plus désormais exclusifs !",
    "self_assign_perms": "Je suis dans l'incapacité de t'ajouter ce rôle. `Je ne peux pas ajouter de rôles aux propriétaires ou aux autres rôles supérieur à mon rôle dans la hiérarchie des rôles.`",
    "self_assign_rem": "{0} a été supprimé de la liste des rôles auto-attribuable.",
    "self_assign_remove": "Vous n'avez plus le rôle {0}.",
    "self_assign_success": "Vous avez désormais le rôle {0}.",
    "adsarm_enable": "L'effacement automatique des réponses `{0}iam` et `{0}iamn` a été activé.",
    "adsarm_disable": "Le bot ne supprimera plus désormais les réponses `{0}iam` et `{0}iamn`.",
    "setrole": "Ajout du rôle {0} à l'utilisateur {1} avec succès.",
    "set_channel_name": "Nouveau nom de salon défini.",
    "shutting_down": "Arrêt",
    "spam_ignore": "{0} ignorera ce salon.",
    "spam_not_ignore": "{0} n'ignorera désormais plus ce salon.",
    "spam_stats": "Si un utilisateur publie {0} messages identiques à la fois, je le {1}.\n    __Canaux Ignorés__: {2}",
    "undeafen": "Mise en sourdine désactivée avec succès.",
    "username": "Nom d'utilisateur",
    "user_chat_mute": "{0} a été mis en sourdine du tchat.",
    "user_chat_unmute": "**La parole a été rétablie** dans le salon textuel pour {0}.",
    "user_muted": "{0} a été mise en sourdine du tchat textuel et vocal.",
    "user_unmuted": "{0} n'est plus en sourdine dans le tchat textuel et vocal.",
    "user_voice_mute": "{0} est maintenant **muet** en vocal.",
    "user_voice_unmute": "{0} n'est plus **muet**",
    "sbdm": "Vous avez été expulsé du serveur {0}.\nRaison : {1}",
    "sb_user": "L'utilisateur a été expulsé",
    "better_luck": "Vous aurez plus de chance la prochaine fois ^-^",
    "roll": "Tu es tombé sur {0}.",
    "br_win": "Félicitations ! Tu gagnes {0} pour être tombé au dessus de {1}",
    "flip_guess": "Tu as trouvé ! Tu gagnes {0}",
    "flip_results": "Jeté de {0} pièces. {1} faces, {2} piles.",
    "has": "{0} a {1}",
    "leaderboard": "Classement",
    "mass_award": "Récompense de {0} accordée aux utilisateurs {0} ayant de rôle {2}.",
    "max_bet_limit": "Vous ne pouvez pas parier plus de {0}",
    "min_bet_limit": "Tu ne peux pas parier moins de '0}",
    "not_enough": "Tu n'as pas assez de {0}",
    "raffled_user": "Utilisateur tiré au sort",
    "slot_bet": "Pari",
    "slot_jackpot": "WOAAHHHHHHH !!! Félicitations !!! x{0}",
    "slot_single": "Un simple {0}, x{1}",
    "slot_three": "Wow ! Chanceux ! Un brelan ! x{0}",
    "slot_two": "Bon travail ! Deux {0} - pari x{1}",
    "won": "Gagné",
    "transactions": "Transactions de l'utilisateur {0}",
    "commands_instr": "Taper `{0}h NomCommande` pour voir l'aide de cette commande spécifique. Ex : `{0}h {0}8ball`",
    "command_not_found": "Je ne peux pas trouver cette commande. Vérifiez que cette commande existe avant de réessayer.",
    "module_not_found": "Ce module n'existe pas.",
    "module_not_found_or_cant_exec": "Soit ce module n'existe pas, soit vous ne pouvez exécuter aucunes des commandes dans le module spécifié.",
    "usage": "Usage",
    "options": "Options",
    "requires": "Requiert",
    "blacklisted_tag_list": "Liste des mots-clés en liste noire:",
    "blacklisted_tag_add": "Le mot-clé {0} est maintenant sur liste noire.",
    "blacklisted_tag_remove": "Le mot-clé {0} n'est désormais plus sur liste noire.",
    "animal_race": "Course d'animaux",
    "animal_race_failed": "Échec du lancement car il n'y avait pas assez de participants.",
    "animal_race_join": "{0} a rejoint en tant que {1}",
    "animal_race_join_instr": "Taper `{0}jr` pour rejoindre la course.",
    "animal_race_starting": "Début dans {0} secondes ou quand la salle est pleine.",
    "animal_race_won": "{0} en tant que {1} a gagné la course !",
    "dice_invalid_number": "Nombre spécifié invalide. Vous pouvez jeter {0}-{1} dés à la fois",
    "dice_rolled": "tiré au sort {0}",
    "dice_rolled_num": "Dés lancés : {0}",
    "changes_of_heart": "Changements d'avis",
    "claimed_by": "Réclamé par",
    "divorces": "Divorces",
    "likes": "J'aimes",
    "price": "Prix",
    "waifu": "Waifu",
    "waifus_none": "Aucunes waifus n'ont encore été réclamées.",
    "waifus_top_waifus": "Meilleures Waifu",
    "waifu_claimed": "a revendiqué {0} comme sa waifu pour {1} !",
    "waifu_divorced_like": "Vous avez divorcé d'une waifu qui vous aimait. Espèce de monstre sans cœur. {0} a reçu {1} en compensation.",
    "waifu_egomaniac": "vous ne pouvez pas définir votre affinité pour vous-même, espèce d'égoïste.",
    "waifu_fulfilled": "🎉 Leur amour est accompli 🎉\nLa nouvelle valeur de {0} est {1} !",
    "waifu_not_enough": "Vous devez payer {0} ou plus pour revendiquer cette waifu !",
    "waifu_not_yours": "Cette waifu n'est pas vôtre.",
    "waifu_not_yourself": "Vous ne pouvez pas vous revendiquer vous-même.",
    "waifu_recent_divorce": "Vous avez divorcé récemment. Vous devez attendre {0} heures et {1} minutes avant de divorcer à nouveau.",
    "waifu_transfer_fail": "Vous n'êtes pas le propriétaire de cette waifu.",
    "waifu_transfer_success": "Le prétendant de {0} n'est plus {1} mais {2}.",
    "nobody": "Personne",
    "waifu_divorced_notlike": "Vous avez divorcé d'une waifu qui ne vous aimait pas. Vous avez reçu {0} en compensation.",
    "waifu_reset": "Vous stats de waifu ont été remise à zéro.",
    "waifu_reset_fail": "Échec de la remise à zéro des stats de waifu. Assurez-vous d'avoir assez de devises.",
    "waifu_reset_confirm": "Ceci remettra à zéro vos stats de waifu",
    "acrophobia": "Acrophobie",
    "acro_ended_no_sub": "La partie s'est terminée sans soumissions.",
    "acro_no_votes_cast": "Aucun votes émis. La partie s'est terminée avec aucun gagnant.",
    "acro_nym_was": "L'acronyme était {0}.",
    "acro_running": "Une partie d'acrophobie est déjà en cours dans ce salon.",
    "acro_started": "La partie a commencée. Créez une phrase avec l'acronyme suivant: {0}.",
    "acro_started_footer": "Vous avez {0} pour faire une soumission.",
    "acro_vote": "Votez en tapant le numéro de la soumission",
    "acro_vote_cast": "{0} a voté !",
    "acro_winner": "Le gagnant est {0} avec {1} points.",
    "acro_winner_only": "{0} est le gagnant puisqu'il est le seul à avoir participé !",
    "question": "Question",
    "rps_draw": "C'est un match nul ! Les deux ont choisi {0}",
    "rps_win": "{0} a gagné ! {1} bats {2}",
    "submissions_closed": "Soumissions fermées",
    "total_average": "Total: {0} Moyenne: {1}",
    "category": "Catégorie",
    "cleverbot_disabled": "Cleverbot désactivé dans ce salon.",
    "cleverbot_enabled": "Cleverbot activé dans ce salon.",
    "curgen_disabled": "La génération de devises a été désactivée dans ce salon.",
    "curgen_enabled": "La génération de devises a été activée dans ce salon.",
    "curgen_pl": "{0} {1} aléatoires sont apparues !",
    "curgen_sn": "Une {0} aléatoire est apparue !",
    "game_started": "La partie a commencée",
    "hangman_game_started": "La partie de pendu a commencée",
    "hangman_running": "Une partie de pendu est déjà en cours dans ce salon",
    "hangman_types": "Liste des types de termes \"{0}hangman\":",
    "no_results": "Aucun résultats.",
    "picked": "a choisi {0}",
    "planted": "{0} a planté {1}",
    "trivia_already_running": "Une partie de Trivial Pursuit est déjà en cours sur ce serveur.",
    "trivia_game": "Jeu du Trivial Pursuit",
    "trivia_guess": "{0} a trouvé ! La réponse était: {1} ",
    "trivia_none": "Aucun Trivial Pursuit est en cours sur ce serveur",
    "trivia_points": "{0} a {1} points",
    "trivia_stopping": "La partie s'arrêtera après cette question.",
    "trivia_times_up": "Fin du temps imparti ! La réponse correcte était {0}",
    "ttt_against_yourself": "Vous ne pouvez pas jouer contre vous-même.",
    "ttt_already_running": "Une partie de morpion est déjà en cours dans ce salon.",
    "ttt_a_draw": "Égalité !",
    "ttt_created": "a créé une partie de morpion.",
    "ttt_has_won": "{0} a gagné !",
    "ttt_matched_three": "Trois correspondances",
    "ttt_no_moves": "Aucun coups restants !",
    "ttt_time_expired": "Temps écoulé !",
    "ttt_users_move": "Au tour de {0}",
    "vs": "{0} vs {1}",
    "attempting_to_queue": "Tentative d'ajout de {0} morceaux à la file d'attente...",
    "fairplay": "Fair-play",
    "finished_song": "Morceau fini",
    "id": "Id",
    "invalid_input": "Entrée invalide.",
    "must_be_in_voice": "Vous avez besoin d'être dans un salon vocal de ce serveur.",
    "name": "Nom",
    "no_player": "Aucun lecteur de musique actif.",
    "no_search_results": "Aucuns résultats de recherche",
    "player_queue": "File d'attente du lecteur - Page {0}/{1}",
    "playing_song": "Lecture du morceau #{0}",
    "playlist_queue_complete": "La file d'attente de la playlist est terminée.",
    "queued_song": "Morceau mis en file d'attente",
    "removed_song": "Morceau retiré",
    "repeating_track": "Répétition de la piste",
    "volume_set": "Volume mis à {0}%",
    "acm_disable": "Désactivation de l'utilisation de TOUS LES MODULES dans le salon {0}.",
    "acm_enable": "Activation de l'utilisation de TOUS LES MODULES dans le salon {0}.",
    "arm_disable": "Désactivation de l'utilisation de TOUS LES MODULES pour le rôle {0}.",
    "arm_enable": "Activation de l'utilisation de TOUS LES MODULES pour le rôle {0}.",
    "asm_disable": "Désactivation de l'utilisation de TOUS LES MODULES sur ce serveur.",
    "asm_enable": "Activation de l'utilisation de TOUS LES MODULES sur ce serveur.",
    "aum_disable": "Désactivation de l'utilisation de TOUS LES MODULES pour le membre {0}.",
    "aum_enable": "Activation de l'utilisation de TOUS LES MODULES pour le membre {0}.",
    "blacklisted": "{0} mis sur liste noire avec les IDs : {1}",
    "unblacklisted": "{0} retirés de la liste noire avec les IDs : {1}",
    "cmdcd_add": "La commande {0} a désormais un temps de recharge de {1}s",
    "cmdcd_cleared": "Commande {0} ne possède plus de cooldown et tous les cooldowns existants ont été supprimés",
    "cmdcd_none": "Aucuns temps de recharge pour commande réglé.",
    "cx_disable": "Utilisation de {0} {1} interdite dans le salon {2}",
    "cx_enable": "Utilisation de {0} {1} autorisé dans le salon {2}",
    "filter_word_add": "Mot {0} ajouté à la liste des mots filtrés.",
    "filter_word_list": "Liste des mots filtrés",
    "filter_word_remove": "Mot {0} retiré de la liste des mots filtrés.",
    "invalid_second_param_between": "Second paramètre invalide. (Doit être un nombre entre {0} et {1})",
    "invite_filter_channel_off": "Filtre d'invitation désactivé sur ce salon.",
    "invite_filter_channel_on": "Filtre d'invitation activé sur ce salon.",
    "invite_filter_server_off": "Filtre d'invitation désactivé sur ce serveur.",
    "invite_filter_server_on": "Filtre d'invitation activé sur ce serveur.",
    "moved_permission": "Permission {0} déplacée de {1} à {2}",
    "perm_not_found": "Impossible de trouver de permission à l'index #{0}",
    "of_command": "commande",
    "of_module": "module",
    "page": "page {0}",
    "permrole": "Le rôle de permissions actuel est {0}.",
    "permrole_not_set": "Le rôle de permission n'est pas défini.",
    "permrole_reset": "Le rôle de permission est réinitialisé.",
    "permrole_changed": "Les utilisateurs ont désormais besoin du rôle {0} pour modifier les permissions.",
    "perm_out_of_range": "Aucune permission trouvé sur cet index.",
    "removed": "permission retirée #{0} - {1}",
    "rx_disable": "Usage désactivé de {0} {1} pour {2} rôle.",
    "rx_enable": "Usage activé de {0} {1} pour {2} rôle.",
    "sec": "sec.",
    "sx_disable": "Usage désactivé de {0} {1} sur ce serveur.",
    "sx_enable": "Usage activé de {0} {1} sur ce serveur.",
    "uneditable": "non modifiable",
    "ux_disable": "Usage désactivé de {0} {1} pour {2} utilisateur.",
    "ux_enable": "Usage activé de {0} {1} pour {2} utilisateur.",
    "verbose_false": "Je n'afficherai plus les alertes de permissions.",
    "verbose_true": "J'afficherai dorénavant les alertes de permissions.",
    "word_filter_channel_off": "Filtre des mots désactivé dans ce salon.",
    "word_filter_channel_on": "Filtre des mots activé sur ce salon.",
    "word_filter_server_off": "Filtrage des mots désactivé sur ce serveur.",
    "word_filter_server_on": "Filtrage des mots activé sur ce serveur.",
    "abilities": "Aptitudes",
    "chapters": "Chapitres",
    "comic_number": "Bande dessinée #",
    "condition": "Condition",
    "cost": "Prix",
    "date": "Date",
    "word": "Mot",
    "definition": "Définition",
    "episodes": "Épisodes",
    "example": "Exemple",
    "genres": "Genres",
    "authors": "Auteurs",
    "height_weight": "Taille/Poids",
    "height_weight_val": "{0}m/{1}kg",
    "humidity": "Humidité",
    "image_search_for": "Recherche d'images pour:",
    "latlong": "Lat/Long",
    "location": "Emplacement",
    "timezone": "Fuseau horaire",
    "min_max": "Min/Max",
    "original_url": "Url originale",
    "pokemon_ability_none": "Aucune aptitude trouvée",
    "pokemon_none": "Aucun pokémon trouvé",
    "rating": "Évaluation",
    "score": "Score:",
    "search_for": "Recherche pour:",
    "short_url": "Url raccourcie",
    "status": "Status",
    "sunrise": "Levé de soleil",
    "sunset": "Couché de soleil",
    "temperature": "Température",
    "types": "Types",
    "url": "Url",
    "wind_speed": "Force du vent",
    "author": "Auteur",
    "botid": "ID du bot",
    "channelid": "{0} de ce salon est {1}.",
    "channel_topic": "Thème du salon",
    "commands_ran": "Commande exécutée",
    "convert": "{0} {1} est égal à {2} {3}",
    "convertlist": "Unités qui peuvent être converties par le convertisseur",
    "convert_not_found": "Impossible de convertir {0} vers {1}: unités introuvables",
    "convert_type_error": "Impossible de convertir {0} vers {1}: le type d'unité n'est pas égal",
    "created_at": "Créé à",
    "created_by": "Créé par {0}",
    "custom_emojis": "Emojis personnalisés",
    "error": "Erreur",
    "features": "Fonctionnalités",
    "index_out_of_range": "Index hors plage.",
    "inrole_list": "Liste des utilisateurs ayant le rôle {0}",
    "joined_discord": "A rejoint Discord",
    "joined_server": "A rejoint le serveur",
    "listservers": "ID: {0}\nMembres: {1}\nID du propriétaire: {2}",
    "listservers_none": "Aucuns serveurs trouvés sur cette page",
    "list_of_repeaters": "Liste des répéteurs",
    "members": "Membres",
    "memory": "Mémoire",
    "messages": "Messages",
    "nickname": "Surnom",
    "nobody_playing_game": "Personne ne joue à ce jeu.",
    "no_topic_set": "Aucun thème réglé",
    "owner": "Propriétaire",
    "owner_ids": "Identifiant(s) Propriétaire(s)",
    "region": "Région",
    "remind": "Je rappellerai à {0} de {1} dans {2} `({3:d.M.yyyy.} at {4:HH:mm})`",
    "remind_too_long": "Le temps de rappel dépasse le maximum.",
    "repeaters_none": "Pas de répétiteur en cours sur ce serveur.",
    "repeat_invoke_none": "Aucune répétition de messages trouvé sur ce serveur.",
    "result": "Résultat",
    "roles": "Rôles",
    "serverid": "{0} de ce serveur est {1}",
    "server_info": "Info du serveur",
    "shard": "Shard",
    "showemojis_none": "Pas d'emojis spéciaux trouvés.",
    "text_channels": "Salons textuels",
    "uptime": "Uptime",
    "userid": "{0} de l'utilisateur {1} est {2}",
    "roleid": "{0} du rôle {1} est {2}",
    "voice_channels": "Salons vocaux",
    "current_poll_results": "Résultats du sondage actuel",
    "poll_already_running": "Un sondage est déjà en cours sur ce serveur.",
    "poll_created": "📃 {0} a créé un sondage",
    "poll_result": "`{0}.` {1} avec {2} votes.",
    "poll_voted": "{0} a voté.",
    "poll_invalid_input": "Entrée invalide. Vous devez avoir une question et au moins 2 réponses, toutes séparées par un `;`.",
    "x_votes_cast": "{0} total des suffrages exprimés.",
    "pick_pl": "Récupérez les en tapant `{0}pick`",
    "pick_sn": "Récupérez la en tapant `{0}pick`",
    "sql_confirm_exec": "Confirmez l'exécution de la commande SQL suivante",
    "no_vcroles": "Il n'y a pas de rôle pour le salon vocal.",
    "user_muted_time": "{0} ne peux plus écrire ni parler pendant {1} minutes.",
    "vcrole_added": "Les utilisateurs qui rejoindrons le salon vocal {0} obtiendrons le rôle {1}.",
    "vcrole_removed": "Les utilisateurs qui rejoindrons le salon vocal {0} n'obtiendrons plus de rôle.",
    "vc_role_list": "Rôles du salon vocal",
    "option_disabled": "L'option {0} est maintenant désactivée pour l'expression avec l'ID {1}.",
    "option_enabled": "L'option {0} est désormais activée pour l'expression avec l'ID {1}.",
    "channel": "Salons",
    "command_text": "Texte de commande",
    "moderator": "Modérateur",
    "reason": "Raison",
    "scadd": "Nouvelle commande de démarrage ajoutée.",
    "scrm": "Commande de démarrage retirée avec succès.",
    "scrm_fail": "Commande de démarrage non trouvée.",
    "server": "Server",
    "startcmdlist_none": "Pas de commandes de démarrage sur cette page.",
    "startcmds_cleared": "Toutes les commandes de démarrage ont été effacées.",
    "unbanned_user": "L'utilisateur {0} à été débanni.",
    "user_not_found": "Utilisateur introuvable.",
    "user_warned": "L'utilisateur {0} a reçu un avertissement.",
    "user_warned_and_punished": "L'utilisateur {0} a reçu un avertissement et la punition {1} a été appliquée.",
    "warned_on": "Avertissement envoyé sur le serveur {0}",
    "warned_on_by": "Le {0} à {1} par {2}",
    "warnings_cleared": "Tous les avertissements ont été effacés pour {0}.",
    "warning_clear_fail": "Avertissement non effacé. Soit l'avertissement à cet index n'existe pas, soit il a déjà été effacé.",
    "warning_cleared": "L'avertissement {0} a été effacé pour {1}.",
    "warnings_none": "Aucun avertissement sur cette page.",
    "warnlog_for": "Journal d'avertissement pour {0}",
    "warnpl_none": "Aucun châtiment réglé.",
    "warn_cleared_by": "Effacé par {0}",
    "warn_punish_list": "Liste des avertissements de punition",
    "warn_punish_rem": "Avoir {0} avertissement ne déclenche plus une punition.",
    "warn_punish_set": "J'appliquerais la sanction {0} pour les utilisateurs avec {1} avertissements.",
    "cant_apply_punishment": "Je ne peux pas appliquer la sanction. Vérifiez mes permissions ou bien que mon rôle est bien au-dessus.",
    "clpa_fail_already": "Vous avez peut-être déjà reçu votre récompense pour ce mois. Vous ne pouvez recevoir des récompenses seulement qu'une fois par mois, sauf si vous augmentez votre engagement.\nVous pouvez vérifier cela avec la commande `.curtrs`.",
    "clpa_fail_already_title": "Déjà récompensé",
    "clpa_fail_conn": "Votre compte Discord n'est peut-être pas connecté à Patreon. Si vous ne savez pas ce que cela signifie ou ne savez pas comment le connecter, vous devez vous rendre sur [Patreon account settings page](https://patreon.com/settings/account) et cliquer sur le bouton 'Connect to discord'.",
    "clpa_fail_conn_title": "Compte Discord non connecté",
    "clpa_fail_sup": "Pour être éligible à la récompense, vous devez soutenir le projet sur Patreon. Vous pouvez utiliser la commande {0} pour obtenir le lien.",
    "clpa_fail_sup_title": "Non supporté",
    "clpa_fail_wait": "Vous devez attendre 5-10 minutes après votre engagement (ainsi que connecter votre compte discord à votre patreon) pour que votre devise apparaisse.",
    "clpa_fail_wait_title": "Attendez quelque temps",
    "clpa_too_early": "Les récompenses peuvent être réclamées tout les 5 du mois.",
    "shop": "Boutique",
    "shop_item_add": "Article ajouté à la boutique",
    "shop_none": "Aucun article de boutique trouvé sur cette page.",
    "shop_role": "Vous recevrez le rôle {0}.",
    "type": "Type",
    "clpa_next_update": "Prochaine mise à jour dans {0}",
    "gvc_disabled": "La fonctionnalité Salon Vocal de Jeu a été désactivée sur ce serveur.",
    "gvc_enabled": "{0} est désormais un Salon Vocal de Jeu.",
    "not_in_voice": "Vous n'êtes pas dans un salon vocal sur ce serveur.",
    "item": "Objet",
    "out_of_stock": "En rupture de stock",
    "random_unique_item": "Objet aléatoire unique.",
    "shop_buy_error": "Echec de l'envoi de l'item par DM. Vous avez été remboursé.",
    "shop_item_not_found": "Aucun élément de cet index n'a été trouvé.",
    "shop_item_purchase": "Item acheté avec succès.",
    "shop_item_rm": "Élément de la boutique supprimé",
    "shop_item_wrong_type": "Cette entrée de boutique ne prend pas en charge l'ajout d'articles.",
    "shop_list_item_added": "Article ajouté avec succès.",
    "shop_list_item_not_unique": "Cet article a déjà été ajouté.",
    "shop_purchase": "Acheter sur le serveur {0}",
    "shop_role_not_found": "Le rôle qui est vendu n'existe plus.",
    "role_not_found": "Rôle introuvable : {0}",
    "shop_role_purchase": "Vous avez acheté le rôle {0}>",
    "shop_role_purchase_error": "Une erreur est survenue lors de l'assignation du rôle. Votre achat a été remboursé.",
    "unique_items_left": "{0} objets uniques restants.",
    "blocked_commands": "Commandes bloquées",
    "blocked_modules": "Modules bloqués",
    "gcmd_add": "La commande {0} a été désactivée sur tout les serveurs.",
    "gcmd_remove": "La commande {0} a été activée sur tout les serveurs.",
    "gmod_add": "Le module {0} a été désactivé sur tout les serveurs.",
    "gmod_remove": "Le module {0} a été activé sur tout les serveurs.",
    "lgp_none": "Aucune commande ou module bloqué.",
    "cant_read_or_send": "Vous ne pouvez pas lire ou envoyer des messages à ce salon.",
    "prefix_current": "Le préfixe sur ce serveur est {0}",
    "defprefix_current": "Le préfixe par défaut du bot est {0}",
    "timezone_guild": "Le fuseau horaire de ce serveur est `{0}`",
    "timezone_not_found": "Fuseau horaire introuvable. Utilisez la commande \"fuseau horaire\" pour voir la liste des fuseaux horaires disponible.",
    "timezones_available": "Fuseaux horaires disponible",
    "song_not_found": "Chanson non trouvée",
    "not_found": "Introuvable.",
    "verbose_errors_enabled": "Les erreurs de commande non gérées seront désormais affichées dans le tchat.",
    "verbose_errors_disabled": "Les erreurs de commande non gérées ne s'afficheront plus dans le tchat.",
    "perms_reset": "Les permissions pour ce serveur ont été réinitialisées.",
    "perm_prevent": "Le numéro d'autorisation # {0} {1} empêche cette action.",
    "global_perms_reset": "Les permissions globales ont été réinitialisées.",
    "module": "Module: {0}",
    "hangman_stopped": "Jeu du pendu arrêté.",
    "queue_shuffled": "La file d'attente de musique a été mélangée.",
    "warnings_list": "Liste des utilisateurs ayant reçus un avertissement sur ce serveur",
    "waifu_gift": "A offert {0} à {1}",
    "waifu_gift_shop": "Boutique de cadeaux pour waifu",
    "gifts": "Cadeaux",
    "connect4_created": "Création d'une partie de Connect4. En attente d'un joueur.",
    "connect4_created_bet": "Vous avez créé un partie de Connect4 et misez {0}. Attendez qu'un joueur rejoigne avec le même pari.",
    "connect4_player_to_move": "Joueurs à déplacer: {0}",
    "connect4_failed_to_start": "La partie de Connect4 n'a pas pu démarrer car personne ne l'a rejoint.",
    "connect4_draw": "La partie de Connect4 a fini sur une égalité.",
    "connect4_won": "{0} a gagné la partie de Connect4 contre {1}.",
    "nunchi_joined": "Vous avez rejoint la partie de Nunchi. {0} utilisateurs ont joints jusqu'à présent.",
    "nunchi_ended": "Le partie de Nunchi s'est terminé. {0} gagné",
    "nunchi_ended_no_winner": "Le partie de Nunchi s'est terminé sans vainqueur.",
    "nunchi_round_ended": "Fin du round de Nunchi. {0} est hors jeu.",
    "nunchi_round_ended_boot": "Le round de Nunchi s'est terminé en raison du timeout de certains utilisateurs. Ces utilisateurs sont toujours dans le jeu: {0}",
    "nunchi_round_started": "Le round de Nunchi a commencé avec {0} utilisateurs. Commencez à compter à partir du nombre {1}.",
    "nunchi_next_number": "Numéro enregistré. Le dernier numéro était {0}.",
    "nunchi_failed_to_start": "La partie de Nunchi n'a pas pu démarrer car il n'y avait pas assez de participants.",
    "nunchi_created": "Une partie de Nunchi ",
    "stream_role_enabled": "Lorsqu'un utilisateur du rôle {0} commence à diffuser, je lui donne le rôle {1}.",
    "stream_role_disabled": "La fonction de rôle streamer a été désactivée.",
    "stream_role_kw_set": "Les streamers nécessitent désormais {0} mot-clé pour recevoir le rôle.",
    "stream_role_kw_reset": "Réinitialisation des mots clé du rôle streamer.",
    "stream_role_bl_add": "L'utilisateur {0} ne recevra jamais le rôle streamer.",
    "stream_role_bl_add_fail": "L'utilisateur {0} est déjà blacklisté.",
    "stream_role_bl_rem": "L'utilisateur {0} n'est plus blacklisté.",
    "stream_role_bl_rem_fail": "L'utilisateur {0} n'est pas blacklisté.",
    "stream_role_wl_add": "L'utilisateur {0} recevra le rôle streamer même s'il n'a pas le mot-clé dans le titre du stream.",
    "stream_role_wl_add_fail": "L'utilisateur {0} est déjà sur la liste blanche.",
    "stream_role_wl_rem": "L'utilisateur {0} n'est plus sur liste blanche.",
    "stream_role_wl_rem_fail": "L'utilisateur  {0} n'est pas sur liste blanche.",
    "xp_role_reward_add_role": "L'utilisateur qui atteint le niveau {0} recevra le rôle {1}",
    "xp_role_reward_remove_role": "L'utilisateur qui atteint le level {0} perdra le rôle {1}",
    "cur_reward_cleared": "Atteindre le niveau {0} n'offrera plus aucune {0}.",
    "cur_reward_added": "Les utilisateurs atteignants le niveau {0} recevront {1}.",
    "level_up_rewards": "Récompenses de monté de niveau",
    "xp_receive_role": "Reçoit le rôle {0}.",
    "xp_lose_role": "Perd le rôle {0}",
    "club_create_error": "Echec de la création du club. Vérifier que vous êtes niveau 5 et plus ou que vous n'êtes pas déjà membre d'un club.",
    "club_created": "Club {0} créé avec succès !",
    "club_not_exists": "Ce club n'existe pas.",
    "club_applied": "Vous avez candidaté pour le club {0}.",
    "club_apply_error": "Erreur lors de l'envoie de la candidature. Soit vous faites déjà partie d'un club, soit vous ne possédez pas le niveau minimum requis ou sinon vous avez été banni de ce club.",
    "club_accepted": "L'utilisateur {0} a été accepté dans le club.",
    "club_accept_error": "L'utilisateur est introuvable",
    "club_left": "Vous avez quitté le club.",
    "club_not_in_club": "Vous n'êtes pas dans un club, ou vous essayez de quitter le club dont vous êtes le propriétaire.",
    "club_user_kick": "L'utilisateur {0} a été exclu du club {1} .",
    "club_user_kick_fail": "Impossible d'exclure l'utilisateur. Vous n'êtes pas le propriétaire du club, où l'utilisateur n'est pas dans votre club.",
    "club_user_banned": "L'utilisateur {0} a été banni du club {1}",
    "club_user_ban_fail": "Échec du bannissement. Vous n'êtes pas le propriétaire, ou cet utilisateur n'est pas dans votre club.",
    "club_user_unbanned": "L'utilisateur {0} a été débanni du club {1}.",
    "club_user_unban_fail": "Échec du débanissement. Vous n'êtes pas le propriétaire, ou cet utilisateur n'est pas dans votre club.",
    "club_level_req_changed": "Changement du niveau requis à {0}",
    "club_level_req_change_error": "Échec du changement du niveau requis.",
    "club_desc_updated": "Description du coup mise à jour : {0}",
    "club_desc_update_failed": "Échec du changement de la description du club.",
    "club_disbanded": "Le club {0} a été dissout",
    "club_disband_error": "Erreur. Soit vous n'êtes pas dans un club ou soit vous n'êtes pas le propriétaire du club.",
    "club_icon_error": "L'URL de l'image n'est pas valide ou vous n'êtes pas le propriétaire du club.",
    "club_icon_set": "Nouvel icône de club défini.",
    "club_bans_for": "Liste des bans pour le club {0}",
    "club_apps_for": "Liste des candidatures pour le club {0}",
    "club_leaderboard": "Tableau de classement du club - page {0}",
    "self_assign_are_exclusive": "Vous pouvez seulement choisir 1 rôle de chaque groupe.",
    "self_assign_are_not_exclusive": "Vous pouvez choisir n'importe quels rôles depuis n'importe quel groupe.",
    "new_reaction_event": "Ajoutez la réaction {0} à ce message pour avoir {1}\n{2} récompenses restantes.",
    "new_gamestatus_event": "Écrivez le code secret dans n'importe quel salon pour recevoir {1}\n{2} récompenses restantes.",
    "event_duration_footer": "L'événement se fini dans {0} heures.",
    "start_event_fail": "Échec de l'événement. Un événement est déjà en cours, où il y a une erreur avec le démarrage de l'événement.",
    "event_title": "L'évènement {0} a commencé !",
    "poll_closed": "Le sondage Clos !",
    "club_not_exists_owner": "Vous n'êtes ni le propriétaire ni l'administrateur de ce club.",
    "club_admin_add": "{0} est désormais administrateur du club.",
    "club_admin_remove": "{0} n'est plus administrateur du club.",
    "club_admin_error": "Erreur. Vous n'êtes soit pas le propriétaire du club, soit cet utilisateur n'est pas dans votre club.",
    "feed_added": "Le flux est ajouté.",
    "feed_not_valid": "Soit le lien est invalide, soit vous suivez déjà ce flux sur ce serveur ou soit vous avez atteint le nombre maximum de flux autorisés.",
    "feed_out_of_range": "L'index est en dehors de la plage disponible.",
    "feed_removed": "Le flux est supprimé.",
    "feed_no_feed": "Vous n'avez souscrit à aucun fil d'actualité sur ce serveur.",
    "timely_none": "Le propriétaire de ce bot n'a pas spécifié de récompense récurrente.",
    "timely_already_claimed": "Vous avez déjà obtenu votre récompense récurrente. Vous pourrez l'obtenir de nouveau dans {0}.",
    "timely": "Vous venez de réclamer vos {0}. Vous pourrez réclamer a nouveau dans {1}h.",
    "timely_set": "Les utilisateurs pourront réclamer {0} toutes les {1}h.",
    "timely_set_none": "Les utilisateurs ne pourront réclamer aucune monnaie récurrente.",
    "timely_reset": "Tous les utilisateurs peuvent réclamer leur monnaie récurrente de nouveau.",
    "market_cap": "Capitalisation Boursière",
    "volume_24h": "Volume (24h)",
    "change_7d_24h": "Change (7j/24h)",
    "crypto_not_found": "Aucune cryptomonnaie trouvée avec ce nom.",
    "did_you_mean": "Vouliez-vous dire {0} ?",
    "self_assign_level_req": "Le rôle auto-assignable {0} requiert désormais, à minima, le niveau {1} sur le serveur.",
    "self_assign_not_level": "Ce rôle auto-assignable requiert au moins le niveau {0} sur le serveur.",
    "invalid": "Invalide / Introuvable ({0})",
    "mass_kill_in_progress": "Le bannissement massif et la mise sur liste noire de {0} utilisateurs est en cours...",
    "mass_kill_completed": "Le bannissement massif et la mise sur liste noire de {0} utilisateurs est fini.",
    "club_transfered": "La propriété du club {0} a été transférée à {1}",
    "club_transfer_failed": "Transfert échoué. Vous devez être le propriétaire du club. La cible doit être un membre de votre club.",
    "reaction_roles_message": "**Rôles : **{0}\n**Contenu : **{1}",
    "no_reaction_roles": "Aucune fonction ReactionRole n'est activée sur ce serveur.",
    "reaction_role_removed": "Message ReactionRole #{0} supprimé",
    "reaction_roles_full": "Vous avez atteint la limite de messages ReactionRole. Vous devez en supprimer.",
    "reminder_list": "Liste des rappels",
    "reminder_deleted": "Le rappel #{0} a été supprimé.",
    "reminder_not_exist": "Aucun rappel n'existe à cet index.",
    "reminders_none": "Aucun rappel sur cette page.",
    "bj_created": "a créé une nouvelle partie de BlackJack dans ce salon.",
    "bj_joined": "a rejoint la partie de BlackJack",
    "no_invites": "Aucune invitation sur cette page.",
    "invite_deleted": "L'invitation {0} a été supprimée.",
    "deleted": "Réaction personnalisée supprimée",
    "insuff_perms": "Permissions insuffisantes. Vous devez être le détenteur du bot pour les réactions personnalisées globales ou administrateur pour celles du serveur.",
    "custom_reactions": "Réactions personnalisées",
    "new_cust_react": "Nouvelle réaction personnalisée",
    "no_found": "Aucune réaction personnalisée trouvée.",
    "no_found_id": "Aucune réaction personnalisée trouvée avec cet ID.",
    "cleared": "{0} réaction personnalisées ont été supprimées.",
    "crr_reset": "La réaction personnalisée d'ID {0} n'ajoutera désormais plus de réactions.",
    "crr_set": "La réaction personnalisée d'ID {0} ajoutera les réactions suivantes au message de réponse : {1}",
    "invalid_emojis": "Tous les emojis spécifiés sont invalides.",
    "aliases_cleared": "Tous les alias {0} de ce serveur ont été enlevés.",
    "vcrole_not_found": "Ce salon vocal n'a pas de VcRole.",
    "attachments": "Pièces jointes",
    "avatar_changed": "Avatar changé",
    "banmsg_disabled": "Les messages d'exclusion sont désactivés. Vous pouvez les activer en définissant banmsg autrement que '-'.",
    "banmsg_default": "Aucun message d'exclusion défini. La conduite par défaut sera appliquée.",
    "banned_pl": "Exclu",
    "bot_name": "Le nom du bot a été changé pour {0}",
    "bot_status": "Le statut du bot a été changé pour {0}",
    "ch_name_change": "Nom de salon modifié",
    "ch_old_name": "Ancien nom",
    "ch_topic_change": "Sujet du salon modifié",
    "content": "Contenu",
    "server_delmsgoncmd": "Paramètres du serveur",
    "channel_delmsgoncmd": "Réglages propre aux salons",
    "dm_from": "MP de",
    "images_loading": "Les images seront rechargées en quelques secondes.",
    "insuf_perms_i": "Mes permissions sont insuffisantes.",
    "insuf_perms_u": "Vos permissions sont insuffisantes.",
    "lang_set_fail": "Échec de la définition des paramètres régionaux. Revoyez l'aide de cette commande.",
    "lang_set_show": "La langue de ce serveur est défini sur {0} - {1}",
    "log": "Journalisation des évènements de {0} dans ce salon.",
    "log_all": "Journalisation de tous les évènements dans ce salon.",
    "log_disabled": "Journalisation désactivée.",
    "log_events": "Evènements de journalisation auxquels vous pouvez vous abonner :",
    "log_stop": "La journalisation de l'évènement {0} arrêtée.",
    "msg_not_found": "Message introuvable.",
    "time_too_long": "Le temps spécifié est trop long.",
    "log_vc_moved": "{0} à été déplacé du salon vocal {1} à {2}",
    "msg_del": "Message supprimé dans #{0}",
    "msg_update": "Message mise-à-jour dans #{0}",
    "muted_pl": "Muets",
    "muted_sn": "Muet",
    "mute_role": "Rôle muet actuel est {0}",
    "mute_perms": "Vous ne pouvez pas mettre en sourdine un utilisateur dont le rôle est au-dessus du vôtre, sauf si vous êtes le propriétaire du serveur.",
    "new_msg": "Nouveau message",
    "new_nick": "Nouveau surnom",
    "new_topic": "Nouveau thème",
    "nick_change": "Surnom modifié",
    "no_shard_id": "Aucune shard avec cet ID n'a été trouvée.",
    "nsfw_set_true": "Le NSFW est activé sur ce salon.",
    "nsfw_set_false": "Le NSFW est désactivé sur ce salon.",
    "old_msg": "Ancien message",
    "old_nick": "Ancien surnom",
    "old_topic": "Ancien thème",
    "prot_cant_use_time": "Vous ne pouvez spécifier de durée pour cette sanction.",
    "rar_err": "Échec de la suppression de rôles. Mes permissions sont insuffisantes.",
    "rc_perms": "Une erreur est survenue suite à une couleur invalide ou des permissions insuffisantes.",
    "remrole": "Succès du retrait du rôle {0} de l'utilisateur {1} ",
    "remrole_err": "Échec du retrait du rôle. Permissions insuffisantes.",
    "renrole_err": "Échec du renommage du rôle. Permissions insuffisantes.",
    "renrole_perms": "Vous ne pouvez pas modifier des rôles supérieurs au votre ou à mon rôle le plus élevé.",
    "ropl_added": "Ajoutés.",
    "ropl_disabled": "Rotation du statut de jeu désactivée.",
    "ropl_enabled": "Rotation du statut de jeu activée.",
    "ropl_list": "Voici une liste de statuts en rotation :\n{0}",
    "ropl_not_set": "Aucun statut en rotation réglé.",
    "setrole_err": "Échec de l'ajour de rôle. Mes permissions sont insuffisantes.",
    "set_avatar": "Nouvel avatar défini!",
    "set_game": "Nouveau jeu défini!",
    "set_stream": "Nouveau stream défini!",
    "set_topic": "Nouveau thème du salon réglé.",
    "shard_reconnecting": "La Shard {0} se reconnecte.\n",
    "soft_banned_pl": "ban-soft",
    "text_chan_created": "Salon textuel crée.",
    "text_chan_destroyed": "Salon textuel supprimé.",
    "duration": "Durée",
    "unmuted_sn": "Démuté",
    "unable_to_dm_user": "Échec de l'envoi de message par MP.",
    "username_changed": "Nom de membre changé",
    "user_banned": "Utilisateur banni",
    "user_joined": "Un utilisateur à rejoint",
    "user_left": "Un utilisateur est parti",
    "user_role_add": "Rôle utilisateur ajouté",
    "user_role_rem": "Rôle utilisateur retiré",
    "user_status_change": "{0} est maintenant {1}",
    "user_vjoined": "{0} a rejoint {1} salon vocal.",
    "user_vleft": "{0} a quitté {1} salon vocal.",
    "user_vmoved": "{0} est passé du salon vocal {1} au salon vocal {2}.",
    "voice_chan_created": "Salon vocal créé",
    "voice_chan_destroyed": "Salon vocal détruit",
    "xmuted_text": "Utilisateur {0} du tchat textuel de {1}",
    "xmuted_text_and_voice": "Utilisateur {0} du tchat textuel et vocal par {1}",
    "xmuted_voice": "Utilisateur {0} du vocal {1}",
    "user_unbanned": "Utilisateur débanni",
    "presence_updates": "Présence de mise-à-jours",
    "awarded": "donne la récompense de {0} à {1}",
    "deck_reshuffled": "Cartes mélangées.",
    "flipped": "a retourné {0}.",
    "flip_invalid": "Chiffre spécifié invalide. Vous pouvez retourner entre 1 et {0} pièces.",
    "cards_left": "{0} cartes restantes dans le jeu",
    "gifted": "a offert {0} à {1}",
    "heads": "Face",
    "no_more_cards": "Plus de cartes dans le deck.",
    "tails": "Pile",
    "take": "a pris avec succès {0} de {1}",
    "take_fail": "Impossibilité de prendre {0} de {1} car l'utilisateur n'a pas autant de {2} !",
    "commandlist_regen": "Liste de commandes régénérée.",
    "desc": "Description",
    "cant_dm": "Je ne peux pas te dm. Assurez-toi que tes DM sont ouverts. Allez dans **options (bouton rouage) -> Confidentialité et sécurité -> Autoriser les messages directs des membres du serveur**",
    "donate": "Vous pouvez soutenir le projet NadekoBot sur\nPatreon <{0}> ou\nPaypal<{1}>\nN'oubliez pas de laisser votre nom ou ID Discord dans le message.\n\n**Merci beaucoup**♥️",
    "guide": "**Liste de commandes** : <{0}>\n**Des guides et documents d'hébergement peuvent être trouvés ici** : <{1}>",
    "list_of_modules": "Liste des modules",
    "autohentai_started": "Autohentai commencé. Reposte toutes les {0}sec avec un des tags suivant:\n{1}",
    "tag": "Tag",
    "animal_race_full": "La course est pleine! Départ imminent.",
    "animal_race_join_bet": "{0} rejoint en tant que {1} et parie {2} !",
    "animal_race_starting_with_x": "Démarrage avec {0} participants.",
    "animal_race_won_money": "{0} en tant que {1} a gagné la course et {2}!",
    "race_not_exist": "Aucune course n'existe dans ce serveur",
    "second_larger_than_first": "Le deuxième chiffre doit être plus grand que le premier.",
    "waifu_affinity_already": "votre affinité est déjà définie sur cette waifu ou vous essayez de supprimer votre affinité sans en avoir.",
    "waifu_affinity_changed": "a changé son affinité de {0} à {1}.\n\n*C'est moralement discutable.*🤔",
    "waifu_affinity_cooldown": "Vous devez attendre {0} heures et {1} minutes avant de pouvoir changer votre affinité.",
    "waifu_affinity_reset": "Votre affinité est réinitialisée. Il n'y a plus personne que vous aimez.",
    "waifu_affinity_set": "veut être la waifu de {0}. Aww <3",
    "waifu_isnt_cheap": "Aucune waifu n'est si bon marché. Vous devez payer au moins {0} pour obtenir une waifu, même si leur valeur actuelle est inférieure.",
    "waifu_reset_price": "Prix: {0}",
    "animal_race_already_started": "Course d'animaux toujours en cours.",
    "failed_loading_question": "Le chargement de la question a échoué.",
    "trivia_win": "{0} a deviné et GAGNE le jeu ! La réponse était : {1}",
    "trivia_quit": "Vous pouvez arrêter le trivia en tapant {0}",
    "dir_queue_complete": "File d'attente du répertoire terminée.",
    "fp_disabled": "Fair-play désactivé.",
    "fp_enabled": "Fair-play activé.",
    "from_position": "De la position",
    "now_playing": "Lecture en cours",
    "playlists": "`#{0}` - *{1}** par *{2}* ({3} chansons)",
    "playlists_page": "Page {0} des listes de lecture enregistrées",
    "playlist_deleted": "Liste de lecture supprimée.",
    "playlist_delete_fail": "Échec de la suppression de cette liste de lecture. Soit elle n'existe pas, soit vous n'en êtes pas l'auteur.",
    "playlist_id_not_found": "Une liste de lecture avec cet ID n'existe pas.",
    "playlist_saved": "Liste de lecture sauvegardée",
    "queue": "File d'attente",
    "queue_cleared": "File d'attente de musique effacée.",
    "set_music_channel": "Je vais maintenant sortir les chansons en cours de lecture, terminées, mises en pause et supprimées sur ce salon.",
    "unset_music_channel": "Je vais maintenant afficher les chansons en cours de lecture, terminées, mises en pause et supprimées des lecteurs de musique nouvellement créés dans le salon à partir de laquelle la musique a été lancée.",
    "song_moved": "Chanson déplacée",
    "to_position": "A la position",
    "volume_input_invalid": "Le volume doit être entre 0 et 100",
    "link_filter_channel_off": "Filtrage des liens désactivé sur ce salon.",
    "link_filter_channel_on": "Filtrage des liens activé sur ce salon.",
    "link_filter_server_off": "Filtrage des liens désactivé sur ce serveur.",
    "link_filter_server_on": "Filtrage des liens activé sur ce serveur.",
    "avatar_none": "L'utilisateur {0} n'a pas d'avatar défini.",
    "anime_no_fav": "Pas d’animé favori",
    "atl_ad_started": "Début de la traduction automatique des messages dans ce salon. Les messages de l'utilisateur seront automatiquement supprimés.",
    "atl_removed": "Votre langue de traduction automatique a été supprimée.",
    "atl_set": "Votre langue de traduction automatique a été définie sur {0}>{1}",
    "atl_started": "Début de la traduction automatique des messages sur cette chaîne.",
    "atl_stopped": "Arrêt de la traduction automatique des messages sur ce canal.",
    "bad_input_format": "Mauvais format d'entrée, ou quelque chose s'est mal passé.",
    "card_not_found": "N'a pas pu trouver cette carte.",
    "catfact": "Fait",
    "comic_not_found": "Comic introuvé.",
    "completed": "Achevé(e)",
    "dropped": "Abandonné(e)",
    "error_occured": "Une erreur est survenue.",
    "failed_finding_anime": "N'a pas pu trouver l'animu.",
    "failed_finding_manga": "N'a pas pu trouver le mango.",
    "imdb_fail": "N'a pas pu trouver ce film.",
    "invalid_lang": "Langue source ou cible invalide.",
    "jokes_not_loaded": "Blagues non chargées.",
    "list_of_place_tags": "Liste des {0} tags de lieu",
    "city_not_found": "Ville introuvée.",
    "magicitems_not_loaded": "Objets magiques non chargés.",
    "mal_profile": "Profil MAL de {0}",
    "mashape_api_missing": "Le propriétaire du bot n'a pas spécifié MashapeApiKey. Vous ne pouvez pas utiliser cette fonctionalité.",
    "no_channel_found": "Aucun salon trouvé.",
    "on_hold": "En attente",
    "osu_api_key": "Une clé API osu! est demandée.",
    "osu_failed": "Échec de récupération de la signature osu!.",
    "osu_user_not_found": "Membre introuvé",
    "plan_to_watch": "À regarder",
    "something_went_wrong": "Quelque chose a mal tourné.",
    "specify_search_params": "Veuillez spécifier les paramètres de recherche.",
    "store_url": "URL de la boutique",
    "streamer_offline": "Streamer {0} est hors-ligne.",
    "streamer_online": "Streamer {0} est en ligne avec {0} spectateurs.",
    "streams_follow_title": "Streams que vous suivez",
    "streams_none": "Vous ne suivez aucun stream sur ce serveur.",
    "stream_no": "Il n'y a pas de tel stream.",
    "stream_off_enabled": "Les notifications de streaming seront visibles quand un stream est mis hors-ligne.",
    "stream_off_disabled": "Les notifications de streaming ne seront plus visibles quand un stream est mis hors-ligne.",
    "stream_not_added": "Le stream n'a pas été ajouté. Soit le stream n'existe pas, soit cette plate-forme n'est pas prise en charge, soit vous avez atteint le nombre maximal de streams autorisés.",
    "stream_message_reset": "Le message d'annonce du stream {0} a été réinitialisé.",
    "stream_message_set": "Un message d'annonce lorsque {0} stream passe en ligne a été défini.",
    "stream_not_following": "Vous ne suivez pas ce stream sur ce serveur.",
    "stream_removed": "Suppression du stream de {0} ({1}) des notifications.",
    "stream_tracked": "J'informerai cette chaîne chaque fois que ce stream sera en ligne.",
    "title": "Titre:",
    "top_3_fav_anime": "Top 3 des animes préférés :",
    "translation": "Traduction:",
    "ud_error": "Échec de la recherche de la définition de ce terme.",
    "viewers": "Les spectateurs",
    "watching": "Regarde",
    "wikia_error": "Impossible de trouver ce terme sur le wikia spécifié.",
    "wikia_input_error": "Veuillez entrer un wikia cible, suivi d'une requête de recherche.",
    "wiki_page_not_found": "Page introuvable.",
    "activity_line": "`{0}.` {1} [{2:F2}/s] - {3} total",
    "activity_page": "Page d'activité #{0}",
    "activity_users_total": "{0} utilisateurs au total.",
    "calcops": "Liste des fonctions dans {0} commande calc",
    "repeater_created": "Répéteur créé",
    "repeater_removed": "Répéteur #{0} supprimé",
    "no_roles_on_page": "Aucun rôle sur cette page.",
    "no_shards_on_page": "Aucun shard dans cette page.",
    "presence": "Présence",
    "presence_txt": "{0} Serveurs\n{1} Salons Textuels\n{2} Salons Vocaux",
    "quotes_deleted": "Suppression de toutes les citations avec le mot-clé {0}.",
    "quotes_page": "Page {0} de citations",
    "quotes_page_none": "Aucune citation trouvée sur cette page.",
    "quotes_remove_none": "Aucune citation que vous pouvez enlever n'a été trouvée.",
    "quote_added_new": "Citation #{0} ajoutée.",
    "repeater_redundant_no": "Répétiteur **#{0}** ne postera plus de messages redondants.",
    "repeater_redundant_yes": "Répétiteur **#{0}** postera dorénavant des messages redondants.",
    "roles_all_page": "Page #{0} de tous les rôles dans ce serveur:",
    "roles_page": "Page #{0} des rôles pour {1}",
    "showemojis": "**Nom:** {0} **Lien:** {1}",
    "users": "Membres",
    "no_user_on_this_page": "Aucun membre sur cette page.",
    "aliases_none": "Aucun psudonyme trouvé",
    "alias_added": "Taper {0} sera désormais un alias de {1}.",
    "alias_list": "List des pseudonymes",
    "alias_removed": "Le déclencheur {0} n'a plus d'alias.",
    "alias_remove_fail": "Le déclencheur {0} n'avait pas d'alias.",
    "punishment_unsupported": "Vous ne pouvez pas utiliser {0} action de punition avec cette fonctionnalité.",
    "interval": "Intervalle",
    "kicked_pl": "Kick",
    "autocmd_add": "La commande {0} s'exécutera toutes les {1} dans ce salon.",
    "autocmdlist_none": "Aucune commande automatique sur cette page.",
    "warn_expire_set_delete": "Les avertissements seront supprimés après {0} jours.",
    "warn_expire_set_clear": "Les avertissements seront effacés après {0} jours.",
    "warn_expire_reset": "Les avertissements n'expirent plus.",
    "warn_punish_set_timed": "J'appliquerai {0} punition pour {2} aux utilisateurs avec {1} avertissements.",
    "clpa_obsolete": ":tada: **Les récompenses en devise Patreon sont désormais automatiques !** :tada:\nCette commande est désormais obsolète.\nSi vous n'avez pas reçu votre récompense pour l'engagement de ce mois, voici quelques-unes des raisons pour lesquelles cela pourrait être le cas.",
    "time_new": "Temps",
    "timezone_db_api_key": "Vous devez activer votre clé API TimezoneDB. Vous pouvez faire cela en cliquant sur le lien que vous avez reçu par mail avec votre clé API.",
    "rolehoist_enabled": "Le rôle {0} est maintenant affiché séparrément des autres membres.",
    "rolehoist_disabled": "Le rôle {0} n'est maintenant plus affiché séparément des autres membres.",
    "shop_role_already_bought": "Vous avez déjà acheté ce rôle.",
    "quotes_notfound": "Aucune citation ne correspond à l'ID fourni.",
    "prefix_new": "Préfixe changé de {0} à {1} sur ce serveur",
    "defprefix_new": "Préfixe par défaut du bot a été changé de {0} pour {1}",
    "bot_nick": "Surnom du bot a été changé pour {0}",
    "user_nick": "Surnom du membre {0} a été changé pour {1}",
    "perm_override": "Les utilisateurs auront besoin de l'autorisation {0} pour exécuter la commande {1}.",
    "define_unknown": "N'arrive pas à trouver une définition à ce terme.",
    "queue_stopped": "Lecteur en arrêt. Utilisez la commande {0} pour commencer à jouer.",
    "removed_song_error": "Chanson sur cet index n'existe pas",
    "nunchi_started": "Jeu de Nunchi a commencé avec {0} participants.",
    "bot_strings_reloaded": "Les chaînes de caractères du bot ont été mises à jour.",
    "xpn_setting_global": "Notifications de montée en niveau Global",
    "xpn_setting_server": "Notifications de montée en niveau du Server",
    "xpn_notif_channel": "Dans le salon où vous avez envoyé le dernier message.",
    "xpn_notif_dm": "Dans un message privé.",
    "xpn_notif_disabled": "Nulle part.",
    "excluded": "{0} has been excluded from the XP system on this server.",
    "not_excluded": "{0} n'est plus exclu du système XP sur ce serveur.",
    "exclusion_list": "Liste d'exclusion",
    "server_is_excluded": "Ce serveur est exclu.",
    "server_is_not_excluded": "Ce serveur n'est pas exclu.",
    "level_up_channel": "Félicitations {0}, vous avez atteint le niveau {1} !",
    "level_up_dm": "Félicitations {0}, vous avez atteint le niveau {1} sur le serveur {2} !",
    "level_up_global": "Félicitations {0}, vous avez atteint le niveau mondial {1} !",
    "level_x": "Niveau {0}",
    "no_level_up_rewards": "Pas de récompenses de niveau supérieur sur cette page.",
    "server_leaderboard": "Classement XP du serveur",
    "global_leaderboard": "Classement mondial de l'XP",
    "modified": "XP de l'utilisateur {0} modifié par {1}",
    "template_reloaded": "Le modèle XP a été rechargé.",
    "edited_cust_react": "Réaction personnalisée modifiée",
    "self_assign_group": "Groupe {0}",
    "started": "Commencé. Rediffusion de chaque {0}.",
    "stopped": "A arrêté la rediffusion.",
    "restart_fail": "Vous devez régler RestartCommand dans votre creds.yml",
    "restarting": "Redémarrage.",
    "edit_fail": "Aucune réaction personnalisée n'existe avec cet ID.",
    "streaming": "Streaming",
    "rafflecur": "Tirage au sort de devise {0}",
    "rafflecur_joined": "Membre {0} a rejoint le tirage au sort",
    "rafflecur_already_joined": "Vous avez déjà rejoint ce tirage au sort ou la valeur que vous avez utilisé n'est pas valide.",
    "rafflecur_ended": "Tirage au sort {0} terminé. {1} a gagné {2}!",
    "autodc_enable": "Je me déconnecterai du salon vocal lorsqu'il n'y aura plus de morceaux à jouer.",
    "autodc_disable": "Je ne me déconnecterai plus du salon vocal lorsqu'il n'y aura plus de morceaux à jouer.",
    "failed_finding_novel": "N'ai pas pu trouver ce roman. Assurez-vous d'avoir tapé le nom complet exact et qu'il soit sur novelupdates.com",
    "roll_duel_challenge": "a défié {1} au Duel de Lancer pour {2}",
    "roll_duel": "Duel de lancer",
    "roll_duel_no_funds": "Vous ou vôtre opposant n'avez pas assez de fonds.",
    "roll_duel_timeout": "Le défi de Duel de Lancer n'a pas été accepté.",
    "roll_duel_already_challenged": "Cet utilisateur vous a déjà défié au Duel de Lancer.",
    "account_not_found": "Ce compte n'existe pas ou a été rendu privé.",
    "ninja_not_found": "Devise avec ce nom est introuvable ou un nom de ligue invalied a été fourni.",
    "leagues_not_found": "Incapable de récupérer les donnes depuis l'API Path of Exile.",
    "perm_override_page_none": "Aucune dérogation sur cette page.",
    "perm_override_all": "Toutes les dérogations d'autorisation de Discord ont été effacés.",
    "perm_override_all_confirm": "Êtes-vous sûr de vouloir supprimer **TOUS** les dérogations d'autorisation de Discord sur ce serveur ? Cette action est irréversible.",
    "perm_overrides": "les dérogations d'autorisation de Discord",
    "perm_override_reset": "Les dérogations d'autorisation de Discord pour cette commande ont été effacés.",
    "reset": "Réinitialisation de l'XP",
    "reset_server_confirm": "Êtes-vous sûr de vouloir réinitialiser l'XP de tous les utilisateurs du serveur ?",
    "reset_user_confirm": "Êtes-vous sûr de vouloir réinitialiser l'XP de l'utilisateur spécifié sur ce serveur ?",
    "reset_user": "L'utilisateur avec l'identifiant {0} a vu son XP réinitialisé sur ce serveur.",
    "reset_server": "L'XP de tous les utilisateurs sur le serveur a été réinitialisé.",
    "economy_state": "État de l'économie",
    "currency_owned": "Richesse totale acquise par les utilisateurs",
    "currency_one_percent": "% de la richesse possédée par le top 1%",
    "currency_planted": "Argent actuellement planté",
    "owned_waifus_total": "Valeur totale des waifus possédées",
    "bot_currency": "Richesse possédée par le bot",
    "total": "Total",
    "group_name_added": "Le groupe #{0} a maintenant un nom : {1}",
    "group_name_removed": "Le groupe #{0} n'a plus de nom.",
    "quote_id": "Citation {0}",
    "aar_none": "Les utilisateurs ne reçoivent aucun rôle lorsqu'ils rejoignent ce serveur.",
    "aar_roles": "Les rôles suivants sont assignés aux membres qui joignent ce serveur: {0}",
    "aar_role_removed": "Les membres ne seront plus assignés {0} au moment de joindre le serveur.",
    "remove_roles_pl": "ont eu leurs rôles supprimés",
    "role_too_high": "Vous ne pouvez pas utiliser cette commande avec des rôles supérieurs à votre rôle le plus élevé, sauf si vous êtes administrateur de serveur.",
    "log_vc_joined": "{0} a rejoint le salon vocal {1}",
    "log_vc_left": "{0} a quitté le salon vocal {1}",
    "protection_not_running": "Protection {0} n'est pas activée",
    "anti_alt_status": "Chaque membre joignant le serveur avec un compte datant de moins de {0} sera sujet à l'action suivante : {1} \nNombre de sanctions à ce jour : {2}",
    "mass_take": "Pris {0} de {1} utilisateurs du rôle {2}.",
    "_8ball": "8ball",
    "repeating_none": "Le lecteur s'arrêtera une fois la fin de la file d'attente atteinte.",
    "repeating_queue": "Le lecteur va répéter la file d'attente.",
    "current_music_quality": "Qualité de musique actuellement réglée sur : {0}",
    "music_quality_set": "La qualité de la musique a été définie sur {0}. Vous devrez arrêter et redémarrer le lecteur de musique pour que le changement prenne effet.",
    "blacklisted_users": "Membres sur la liste noire",
    "blacklisted_channels": "Salons sur la liste noire",
    "blacklisted_servers": "Serveurs sur la liste noire",
    "_class": "Classe",
    "stream_not_following_any": "Vous ne suivez aucun stream.",
    "stream_message_set_all": "Tous les {0} streams suivis ont maintenant le message d'annonce spécifié.",
    "repeater_exceed_limit": "Vous ne pouvez avoir plus de {0} rèpètiteurs par serveur.",
    "repeater_remove_fail": "Échec de la suppression du répéteur sur cet index. Soit vous avez spécifié un index non valide, soit le répéteur était en cours d'exécution à ce moment-là, auquel cas, réessayez dans quelques secondes.",
    "interval_colon": "Intervalle:",
    "executes_in_colon": "S'exécute dans :",
    "message_colon": "Message:",
    "no_redundant": "Ne publiera pas de message en double.",
    "remind_invalid": "Ceci n'est pas un format de rappel valide. Le rappel doit avoir une cible, un temps et une raison. Vérifiez la liste de commandes.",
    "user_voice_mute_time": "{0} a été **rendu muet à l'oral** pendant {1} minutes.",
    "user_chat_mute_time": "{0} a été **rendu muet à l'écrit** pendant {1} minutes.",
    "acrm_fail": "Commande automatique introuvable sur l'index spécifié.",
    "warns_dont_expire": "Les avertissements n'ont pas de date d'expiration définie.",
    "warns_expire_in": "Les avertissements expireront dans {0} jours.",
    "not_with_bot_in_voice": "Vous n'êtes pas dans le même salon vocal que le bot.",
    "waifu_gift_not_exist": "Cet objet pour waifu n'existe pas",
    "fans": "Fans ({0})",
    "config_edit_fail": "Échec de la définition de {0} sur la valeur {1}",
    "config_not_found": "Configuration {0} introuvable",
    "config_prop_not_found": "Propriété {0} introuvable dans la configuration {1}",
    "config_list": "Liste de configuration",
    "level_req": "Niveau Requis",
    "xprewsreset_confirm": "Êtes-vous sûr de vouloir supprimer TOUTES les récompenses de niveau xp de ce serveur ? Cette action est irréversible.",
    "xp_role_reward_cleared": "Atteindre le niveau {0} ne récompensera plus d'un rôle.",
    "club_name_too_long": "Nom du club trop long.",
    "club_user_not_in_club": "{0} n'est pas dans un club.",
    "reaction_cant_access": "Je ne peux pas accéder à la réaction {0}. Vous ne pouvez utiliser que les emotes des serveurs sur lesquels je me trouve.",
    "module_footer": "{0}cmds {1}",
    "module_page_empty": "Aucun module dans cette page.",
    "module_description_help": "Obtenir de l'aide sur les commandes, des descriptions et des exemples d'utilisation",
    "module_description_gambling": "Pariez sur les lancers de dés, le blackjack, les machines à sous, les coinflips et autres",
    "module_description_games": "Jouez au trivia, nunchi, pendu, connect4 et à d'autres jeux",
    "module_description_nsfw": "Commandes NSFW.",
    "module_description_music": "Jouez de la musique à partir de youtube, des fichiers locaux soundcloud et des flux radio",
    "module_description_utility": "Gérez les citations personnalisés, répéteurs et consulter les faits à propos du serveur",
    "module_description_administration": "Modération, punition des utilisateurs, configuration de rôles auto-assignables et messages d'accueil",
    "module_description_customreactions": "Configurer des réponses de bot personnalisées à certains mots ou expressions",
    "module_description_permissions": "Configurer les autorisations pour les commandes, filtrer les mots et configurer les temps de recharge des commandes",
    "module_description_searches": "Recherche de blagues, d'images d'animaux, d'anime et de manga",
    "module_description_xp": "Gagnez de l'XP en fonction de l'activité de tchat, vérifiez les cartes XP des utilisateurs",
    "module_description_missing": "Description manquante pour ce module.",
    "obsolete_use": "⚠ Obsolète, utilisez plutôt {0}.",
    "purge_user_confirm": "Êtes-vous sûr(e) de vouloir purger {0} de la base des données?",
    "expr_import_no_input": "Saisie invalide. Aucun chargement de fichier ou saisie de texte trouvé.",
    "expr_import_invalid_data": "Impossible d'analyser le fichier. Assurez-vous qu'il s'agisse d'un fichier .yml",
    "inv_expire": "Expire dans:",
    "inv_uses": "Utilisations :",
    "empty_page": "Cette page est vide.",
    "pages": "Pages",
    "favorites": "Favoris",
    "tags": "Tags",
    "invalid_emoji_link": "Le lien spécifié n'est pas une image ou excède 256KB.",
    "emoji_add_error": "Erreur lors de l'ajout d'emoji. Soit vous n'avez plus d'emplacements pour emoji, soit la taille de l'image est inadéquate.",
    "emoji_added": "Nouveau emoji ajouté: {0}",
    "boost_on": "Annonces Boost activées dans ce salon.",
    "boost_off": "Annonces Boost désactivées.",
    "boostmsg_cur": "Message Boost actuel: {0}",
    "boostmsg_enable": "Activez les messages Boost en tapant {0}",
    "boostmsg_new": "Nouveau message Boost défini.",
    "boostdel_off": "La suppression automatique des messages Boost a été désactivée.",
    "boostdel_on": "Les messages Boost seront supprimés après {0} secondes.",
    "log_ignored_channels": "Salons ignorés",
    "log_ignored_users": "Utilisateurs ignorés",
    "log_ignore_user": "La journalisation ignorera le membre {0}",
    "log_not_ignore_user": "La journalisation n'ignorera plus le membre {0}",
    "log_ignore_chan": "La journalisation ignorera le salon {0}",
    "log_not_ignore_chan": "La journalisation n'ignorera plus le salon {0}",
    "streams_cleared": "Tous les streams suivis sur ce server ont été supprimés.",
    "warn_weight": "Poids: {0}",
    "warn_count": "{0} actuel(s), {1} total",
    "mass_ban_in_progress": "En train de bannir {0} membres...",
    "mass_ban_completed": "{0} membres bannis.",
    "reminder_server_list": "Liste des rappels du server.",
    "imageonly_enable": "Ce salon est maintenant exclusivement pour les images.",
    "imageonly_disable": "Ce salon n'est plus exclusivement pour les images."
}